<?xml version='1.0' encoding='UTF-8'?>
<glyph name="quoteleft" format="2">
  <advance width="248"/>
  <unicode hex="2018"/>
  <outline>
    <component base="_typoquote" xScale="-1" yScale="-1" xOffset="284" yOffset="587"/>
  </outline>
  <lib>
    <dict>
      <key>com.schriftgestaltung.Glyphs.ComponentInfo</key>
      <array>
        <dict>
          <key>alignment</key>
          <integer>-1</integer>
          <key>index</key>
          <integer>0</integer>
          <key>name</key>
          <string>_typoquote</string>
        </dict>
      </array>
    </dict>
  </lib>
</glyph>
