<?xml version='1.0' encoding='UTF-8'?>
<glyph name="rhopsili" format="2">
  <advance width="584"/>
  <unicode hex="1FE4"/>
  <outline>
    <component base="rho"/>
    <component base="psili" xOffset="107"/>
  </outline>
</glyph>
