<?xml version='1.0' encoding='UTF-8'?>
<glyph name="uhorn" format="2">
  <advance width="737"/>
  <unicode hex="01B0"/>
  <outline>
    <component base="u"/>
    <component base="horncomb" xOffset="447" yOffset="8"/>
  </outline>
  <lib>
    <dict>
      <key>com.schriftgestaltung.Glyphs.ComponentInfo</key>
      <array>
        <dict>
          <key>alignment</key>
          <integer>1</integer>
          <key>index</key>
          <integer>1</integer>
          <key>name</key>
          <string>horncomb</string>
        </dict>
      </array>
      <key>com.schriftgestaltung.Glyphs.layer.rightMetricsKey</key>
      <string>=+153</string>
    </dict>
  </lib>
</glyph>
